<svg width="39" height="59" viewBox="0 0 39 59" fill="none" xmlns="http://www.w3.org/2000/svg">
<path d="M19.5 37C29.165 37 37 29.165 37 19.5C37 9.83502 29.165 2 19.5 2C9.83502 2 2 9.83502 2 19.5C2 29.165 9.83502 37 19.5 37Z" stroke="#389FA3" stroke-width="4" stroke-linecap="round" stroke-linejoin="round"/>
<path d="M10.025 34.225L7 57L19.5 49.5L32 57L28.975 34.2" stroke="#389FA3" stroke-width="4" stroke-linecap="round" stroke-linejoin="round"/>
</svg>
