<svg width="14" height="14" viewBox="0 0 14 14" fill="none" xmlns="http://www.w3.org/2000/svg">
<path d="M6.98331 3.39355C6.03138 3.39355 5.11843 3.77171 4.44532 4.44483C3.7722 5.11794 3.39404 6.03089 3.39404 6.98282C3.39404 7.93475 3.7722 8.8477 4.44532 9.52081C5.11843 10.1939 6.03138 10.5721 6.98331 10.5721C7.93524 10.5721 8.84819 10.1939 9.5213 9.52081C10.1944 8.8477 10.5726 7.93475 10.5726 6.98282C10.5726 6.03089 10.1944 5.11794 9.5213 4.44483C8.84819 3.77171 7.93524 3.39355 6.98331 3.39355ZM6.98331 9.31383C6.36488 9.31383 5.77178 9.06816 5.33449 8.63086C4.8972 8.19357 4.65153 7.60047 4.65153 6.98204C4.65153 6.36362 4.8972 5.77052 5.33449 5.33323C5.77178 4.89593 6.36488 4.65026 6.98331 4.65026C7.60174 4.65026 8.19483 4.89593 8.63213 5.33323C9.06942 5.77052 9.31509 6.36362 9.31509 6.98204C9.31509 7.60047 9.06942 8.19357 8.63213 8.63086C8.19483 9.06816 7.60174 9.31383 6.98331 9.31383Z" fill="#8C98A4"/>
<path d="M10.7152 4.09847C11.1773 4.09847 11.552 3.72383 11.552 3.2617C11.552 2.79956 11.1773 2.42493 10.7152 2.42493C10.2531 2.42493 9.87842 2.79956 9.87842 3.2617C9.87842 3.72383 10.2531 4.09847 10.7152 4.09847Z" fill="#8C98A4"/>
<path d="M13.608 2.41096C13.4283 1.94691 13.1537 1.5255 12.8018 1.1737C12.4498 0.821895 12.0283 0.547449 11.5642 0.367931C11.0211 0.164061 10.4474 0.0538243 9.86738 0.0419161C9.11987 0.00931463 8.88312 0 6.98758 0C5.09204 0 4.84908 -7.80749e-08 4.10778 0.0419161C3.52825 0.0532155 2.9549 0.163474 2.41251 0.367931C1.94828 0.54724 1.52665 0.821611 1.17469 1.17344C0.822724 1.52527 0.548192 1.94679 0.368707 2.41096C0.164796 2.95401 0.0548128 3.52782 0.0434686 4.10778C0.0100909 4.85451 0 5.09126 0 6.98758C0 8.88312 -5.78333e-09 9.12453 0.0434686 9.86738C0.055112 10.448 0.16456 11.0208 0.368707 11.565C0.548696 12.029 0.823494 12.4503 1.17554 12.8021C1.52759 13.1539 1.94915 13.4284 2.41328 13.608C2.95465 13.8201 3.52823 13.9382 4.10934 13.9573C4.85684 13.9899 5.09359 14 6.98913 14C8.88468 14 9.12763 14 9.86893 13.9573C10.4488 13.9455 11.0226 13.8355 11.5658 13.6321C12.0297 13.4521 12.4511 13.1774 12.803 12.8255C13.1549 12.4736 13.4296 12.0523 13.6096 11.5883C13.8137 11.0449 13.9232 10.4721 13.9348 9.89144C13.9682 9.14471 13.9783 8.90796 13.9783 7.01164C13.9783 5.11532 13.9783 4.87469 13.9348 4.13185C13.9258 3.54368 13.8152 2.96149 13.608 2.41096ZM12.6626 9.80994C12.6576 10.2573 12.5759 10.7005 12.4212 11.1202C12.3046 11.4221 12.1261 11.6962 11.8973 11.9249C11.6684 12.1536 11.3942 12.3319 11.0923 12.4483C10.6772 12.6024 10.2387 12.684 9.79596 12.6897C9.05855 12.7239 8.85052 12.7324 6.95964 12.7324C5.0672 12.7324 4.87392 12.7324 4.12253 12.6897C3.68003 12.6843 3.24177 12.6027 2.82701 12.4483C2.52404 12.3327 2.24873 12.1547 2.01888 11.9259C1.78903 11.6971 1.60976 11.4226 1.49268 11.1202C1.34011 10.705 1.2585 10.267 1.25128 9.82468C1.2179 9.08727 1.21014 8.87924 1.21014 6.98836C1.21014 5.0967 1.21014 4.90342 1.25128 4.15125C1.25629 3.70416 1.33794 3.26125 1.49268 2.84176C1.72943 2.22932 2.21457 1.74728 2.82701 1.51286C3.24197 1.35928 3.6801 1.27764 4.12253 1.27146C4.86072 1.23808 5.06798 1.22876 6.95964 1.22876C8.8513 1.22876 9.04535 1.22876 9.79596 1.27146C10.2387 1.27678 10.6773 1.35845 11.0923 1.51286C11.3942 1.62951 11.6683 1.80799 11.8972 2.03684C12.126 2.26569 12.3045 2.53986 12.4212 2.84176C12.5737 3.257 12.6553 3.69496 12.6626 4.13728C12.6959 4.87547 12.7045 5.08272 12.7045 6.97438C12.7045 8.86527 12.7045 9.06864 12.6711 9.81071H12.6626V9.80994Z" fill="#8C98A4"/>
</svg>
