<svg width="120" height="28" viewBox="0 0 120 28" fill="none" xmlns="http://www.w3.org/2000/svg">
<path d="M6.5783 10.363C5.97107 8.97806 5.24819 8.04505 4.19276 8.04505C3.59999 8.04505 3.03613 8.54071 3.03613 9.26963C3.03613 9.96939 3.55662 10.4942 4.69879 11.019C6.52047 11.8208 7.73493 12.6081 7.73493 14.3866C7.73493 16.6317 5.59517 17.7542 3.7012 17.7542C2.5012 17.7542 1.31565 17.3169 0.867458 16.9816C0.737337 16.6171 0.534928 15.0281 0.506012 13.9347L1.18553 13.8618C1.6771 15.2905 2.71807 16.8649 4.09156 16.8649C4.82891 16.8649 5.33493 16.3255 5.33493 15.6404C5.33493 14.9843 5.01686 14.4158 3.61445 13.7597C2.57348 13.2349 0.751798 12.3457 0.751798 10.3922C0.751798 8.6136 2.16866 7.17035 4.53975 7.17035C5.58071 7.14119 6.18794 7.35987 6.70842 7.57854C6.93975 8.10336 7.19999 9.72155 7.24336 10.1735L6.5783 10.363Z" fill="white"/>
<path d="M8.42889 17.4771V16.7482C9.75901 16.5441 9.88913 16.4275 9.88913 14.9696V4.56071C9.88913 3.19035 9.77347 3.13204 8.5301 2.97168V2.31565C9.81685 2.15529 11.4795 1.86373 12.7518 1.49927V14.9842C12.7518 16.5004 12.8819 16.6024 14.2554 16.7628V17.4917H8.42889V17.4771Z" fill="white"/>
<path d="M26.5735 16.9234C25.9229 17.0108 25.2867 17.1275 24.5494 17.2878C23.8554 17.419 23.1325 17.5794 22.453 17.7397L22.2795 17.5794V16.2236C21.8747 16.5443 21.6434 16.763 21.1518 17.0691C20.5012 17.5065 19.894 17.7543 19.1855 17.7543C17.2916 17.7543 16.2361 16.5297 16.2361 14.5325V9.80914C16.2361 8.7595 16.106 8.65745 15.5133 8.49709L14.9928 8.33673V7.68071C15.5566 7.65155 16.2506 7.59324 17.0024 7.52034C17.7687 7.44745 18.5639 7.35998 19.1711 7.27251C19.1277 8.2201 19.0988 9.38637 19.0988 10.6984V13.9931C19.0988 15.4655 19.8651 15.9903 20.6602 15.9903C21.2675 15.9903 21.759 15.8591 22.2795 15.3489V9.82372C22.2795 8.77408 22.1494 8.61372 21.5566 8.48251L20.8337 8.32215V7.66613C21.4843 7.63697 22.294 7.57866 23.0892 7.50577C23.8843 7.43287 24.6217 7.3454 25.1422 7.25793V14.6491C25.1422 15.8591 25.2723 16.0632 26.0819 16.1507L26.5735 16.1944V16.9234Z" fill="white"/>
<path d="M40.1205 17.4772V16.7483C41.118 16.6171 41.2915 16.5151 41.2915 15.0864V11.1794C41.2915 9.31338 40.4096 8.94893 39.6867 8.94893C39.2385 8.94893 38.6747 9.08013 37.9229 9.69242C37.9518 9.94025 37.9951 10.261 37.9951 10.5963V15.1884C37.9951 16.4859 38.1542 16.6025 39.1662 16.7337V17.4627H33.9614V16.7337C35.0168 16.5734 35.118 16.5296 35.118 15.1884V11.0482C35.118 9.41543 34.3952 8.90519 33.5566 8.90519C33.0217 8.90519 32.4578 9.15302 31.8217 9.63411V15.1884C31.8217 16.4859 31.9807 16.6025 32.8337 16.7337V17.4627H27.5421V16.7337C28.8289 16.5734 28.959 16.5005 28.959 15.0718V10.3047C28.959 9.00724 28.8433 8.78857 27.8024 8.6282V7.97218C28.8578 7.81182 30.3759 7.4911 31.7638 7.11206V8.86146C32.2554 8.497 32.6891 8.17628 33.1807 7.88471C33.8747 7.43278 34.4819 7.1558 35.147 7.1558C36.3903 7.1558 37.3156 7.89929 37.7204 8.94893C38.2554 8.51158 38.8048 8.17628 39.3397 7.78266C39.8313 7.44736 40.4385 7.14122 41.118 7.14122C43.0843 7.14122 44.1397 8.48242 44.1397 10.8004V15.1884C44.1397 16.4859 44.2265 16.5442 45.4265 16.7337V17.4627H40.1205V17.4772Z" fill="white"/>
<path d="M51.0072 7.5786C51.6434 7.28703 52.0048 7.14125 52.453 7.14125C55.1855 7.14125 57.1229 9.38631 57.1229 11.9375C57.1229 15.2614 54.5494 17.7397 51.2675 17.7397C50.0096 17.7397 48.853 17.5064 47.306 16.9233V4.60462C47.306 3.29257 47.1904 3.10306 45.9325 2.98643V2.30125C47.0747 2.17004 48.9108 1.84932 50.1976 1.48486V7.98679L51.0072 7.5786ZM50.1831 15.0135C50.1831 15.3343 50.2265 15.5821 50.2988 15.757C50.4289 16.1215 50.9494 16.8067 51.6723 16.8212C52.8867 16.8504 54 15.48 54 12.6373C54 9.75077 52.5542 8.61366 51.1084 8.61366C50.747 8.61366 50.5157 8.68655 50.1831 8.77402V15.0135Z" fill="white"/>
<path d="M67.4458 15.2176C66.0723 17.2877 64.3084 17.7397 63.3831 17.7397C60.3904 17.7397 58.7133 15.4946 58.7133 12.8705C58.7133 11.1503 59.4362 9.69244 60.3759 8.75943C61.3735 7.75352 62.6024 7.14124 63.8313 7.14124H63.8602C65.9277 7.14124 67.5325 8.93437 67.5181 10.8004C67.5181 11.2523 67.388 11.5439 66.8675 11.6168C66.4627 11.6605 63.7157 11.8938 61.5036 11.9812C61.6193 14.4158 62.9494 15.6404 64.5398 15.6404C65.4217 15.6404 66.2602 15.3488 67.041 14.6636L67.4458 15.2176ZM63.3687 8.05967C62.5301 8.05967 61.7494 9.10931 61.6048 10.917C62.5301 10.8879 63.3687 10.8733 64.294 10.8441C64.6265 10.815 64.7422 10.7712 64.7711 10.3922C64.7711 9.22593 64.2795 8.04509 63.3976 8.04509H63.3687V8.05967Z" fill="white"/>
<path d="M72.8096 9.54671C73.6193 8.13261 74.5012 7.15587 75.3398 7.15587C76.2361 7.15587 76.8434 7.79731 76.8434 8.56996C76.8434 9.38635 76.3518 10.0278 75.7446 10.2465C75.4265 10.3631 75.2096 10.2902 75.0506 10.159C74.6747 9.83827 74.4 9.67791 74.0096 9.67791C73.5759 9.67791 73.1277 9.96948 72.7518 10.8588V15.0865C72.7518 16.5006 72.8819 16.588 74.6169 16.7484V17.4773H68.4434V16.7484C69.6578 16.6172 69.8891 16.5006 69.8891 15.0865V10.1298C69.8891 8.97816 69.7012 8.87611 68.6747 8.62828V7.98683C70.0337 7.79731 71.3638 7.54948 72.7518 7.12671V9.53213H72.8096V9.54671Z" fill="white"/>
<path d="M77.118 17.4771V16.7482C78.4482 16.5441 78.5783 16.4275 78.5783 14.9696V4.56071C78.5783 3.19035 78.4626 3.13204 77.2193 2.97168V2.31565C78.506 2.15529 80.1687 1.86373 81.4409 1.49927V14.9842C81.4409 16.5004 81.5711 16.6024 82.9446 16.7628V17.4917H77.118V17.4771Z" fill="white"/>
<path d="M91.2723 17.7396C90.6651 17.7396 90.188 17.5356 89.8988 17.2586C89.5807 16.9816 89.4217 16.69 89.306 16.413C88.453 16.9816 87.3832 17.7251 86.9639 17.7251C85.041 17.7251 83.9133 16.2235 83.9133 14.8094C83.9133 13.6286 84.4482 13.06 85.6193 12.6227C86.9494 12.127 88.6843 11.573 89.2048 11.1211V10.4359C89.2048 9.00724 88.6699 8.20543 87.8313 8.20543C87.5422 8.20543 87.2964 8.33664 87.094 8.61363C86.8193 8.93435 86.6169 9.47375 86.4434 10.1881C86.2844 10.7858 85.9663 10.9607 85.5036 10.9607C84.9109 10.9607 84.1012 10.4213 84.1012 9.82363C84.1012 9.41543 84.3759 9.12387 84.8964 8.73025C85.7494 8.13254 87.3542 7.34531 88.641 7.11206C89.5663 7.11206 90.2458 7.31616 90.853 7.76808C91.8217 8.51158 92.0241 9.48833 92.0241 10.7712V14.5178C92.0241 15.5675 92.3856 15.859 92.747 15.859C93.0217 15.859 93.2675 15.7716 93.5133 15.6695L93.7446 16.3984L91.2723 17.7396ZM89.2193 12.0395C88.8145 12.2436 88.4241 12.4915 87.9759 12.7393C87.2819 13.1037 86.9205 13.5119 86.9205 14.2846C86.9205 15.5529 87.759 16.034 88.2795 16.034C88.5976 16.034 88.8434 15.9465 89.2193 15.6695V12.0395Z" fill="white"/>
<path d="M100.771 17.4773V16.7484C101.725 16.588 101.826 16.5151 101.826 14.9115V11.0483C101.826 9.41548 101.089 8.90524 100.265 8.90524C99.7012 8.90524 99.1807 9.15308 98.6024 9.605V15.101C98.6024 16.5151 98.7325 16.5734 99.6578 16.7338V17.4627H94.2216V16.7338C95.6241 16.5297 95.7253 16.5005 95.7253 14.9844V10.2756C95.7253 8.90525 95.6096 8.81778 94.5108 8.61368V7.95765C95.7976 7.79729 97.2578 7.47657 98.5879 7.09753V8.78862C99.0361 8.4679 99.4843 8.10344 99.9903 7.78272C100.67 7.34537 101.089 7.14127 101.754 7.14127C103.576 7.14127 104.704 8.51163 104.704 10.7858V15.0864C104.704 16.5151 104.834 16.5589 106.005 16.7484V17.4773H100.771Z" fill="white"/>
<path d="M118.598 16.8796C118.063 16.967 115.937 17.244 114.159 17.7688V16.4422L112.8 17.3315C112.236 17.6959 111.918 17.7397 111.643 17.7397C109.721 17.7397 107.046 16.1506 107.046 12.7539C107.046 9.6633 109.706 7.14125 113.219 7.14125C113.407 7.14125 113.653 7.18498 114.145 7.25787V4.50257C114.145 3.278 114.014 3.16137 112.641 3.00101V2.30125C114.087 2.12631 115.894 1.82016 117.036 1.48486V14.6053C117.036 15.9028 117.152 15.9903 118.092 16.1069L118.583 16.1506V16.8796H118.598ZM114.159 9.28426C113.798 8.48245 113.19 8.10342 112.54 8.10342C112.005 8.10342 110.255 8.70113 110.255 12.1562C110.284 14.9552 111.875 16.0194 112.916 16.0194C113.321 16.0194 113.653 15.9757 114.159 15.655V9.28426Z" fill="white"/>
<path d="M53.2193 20.7276V23.0456H55.3157V23.4246H53.2193V26.7193H52.8145V20.334H55.359V20.713H53.2193V20.7276Z" fill="white"/>
<path d="M63.7301 20.334H64.1349V24.3139C64.1349 24.9699 64.1349 25.5239 63.7012 26.0633C63.2675 26.5589 62.6169 26.8068 61.9807 26.8068C61.3446 26.8068 60.694 26.5589 60.2602 26.0633C59.8265 25.5239 59.8265 24.9699 59.8265 24.3139V20.334H60.2313V24.1972C60.2313 24.7658 60.2313 25.3781 60.5639 25.8009C60.8675 26.209 61.4892 26.4131 61.9807 26.4131C62.4723 26.4131 63.094 26.1945 63.3976 25.8009C63.7301 25.3781 63.7301 24.7658 63.7301 24.1972V20.334Z" fill="white"/>
<path d="M71.9277 26.7193H71.4651L69.3976 23.7016H69.1952V26.7193H68.7904V20.334H69.5856C70.0916 20.334 70.5976 20.3486 71.0314 20.6547C71.4795 20.9754 71.6675 21.4857 71.6675 22.0251C71.6675 23.133 70.9012 23.7162 69.8603 23.687L71.9277 26.7193ZM69.7157 23.3225C70.1061 23.3225 70.5109 23.308 70.8289 23.031C71.1326 22.7831 71.2771 22.4041 71.2771 22.0251C71.2771 21.5586 71.0603 21.0775 70.6121 20.8734C70.2795 20.713 69.8458 20.7276 69.4844 20.7276H69.2241V23.3225H69.7157Z" fill="white"/>
<path d="M81.9614 26.9386L76.6554 21.2385V26.7199H76.2506V20.2617L81.5566 25.9181V20.3492H81.9614V26.9386Z" fill="white"/>
<path d="M87.0796 26.7193H86.6747V20.334H87.0796V26.7193Z" fill="white"/>
<path d="M93.2097 26.7193H92.8048V20.713H91.1711V20.334H94.8434V20.713H93.2097V26.7193Z" fill="white"/>
<path d="M102.766 20.334H103.171V24.3139C103.171 24.9699 103.171 25.5239 102.737 26.0633C102.304 26.5589 101.653 26.8068 101.017 26.8068C100.381 26.8068 99.7301 26.5589 99.2964 26.0633C98.8626 25.5239 98.8626 24.9699 98.8626 24.3139V20.334H99.2675V24.1972C99.2675 24.7658 99.2675 25.3781 99.6 25.8009C99.9036 26.209 100.525 26.4131 101.017 26.4131C101.508 26.4131 102.13 26.1945 102.434 25.8009C102.766 25.3781 102.766 24.7658 102.766 24.1972V20.334Z" fill="white"/>
<path d="M110.964 26.7193H110.501L108.434 23.7016H108.231V26.7193H107.827V20.334H108.622C109.128 20.334 109.634 20.3486 110.067 20.6547C110.516 20.9754 110.704 21.4857 110.704 22.0251C110.704 23.133 109.937 23.7162 108.896 23.687L110.964 26.7193ZM108.737 23.3225C109.128 23.3225 109.533 23.308 109.851 23.031C110.154 22.7831 110.299 22.4041 110.299 22.0251C110.299 21.5586 110.082 21.0775 109.634 20.8734C109.301 20.713 108.868 20.7276 108.506 20.7276H108.246V23.3225H108.737Z" fill="white"/>
<path d="M115.677 20.7276V23.0456H118.222V23.4246H115.677V26.3403H118.294V26.7193H115.272V20.334H118.294V20.713H115.677V20.7276Z" fill="white"/>
</svg>
