<svg width="51" height="60" viewBox="0 0 51 60" fill="none" xmlns="http://www.w3.org/2000/svg">
<path d="M25.5 0L0 8.57143V34.2857C0 48.4888 11.4152 60 25.5 60C39.5848 60 51 48.4888 51 34.2857V8.57143L25.5 0ZM46.2188 34.2857C46.2188 45.8237 36.9418 55.1786 25.5 55.1786C14.0582 55.1786 4.78125 45.8237 4.78125 34.2857V12.1875L25.5 4.82143L46.2188 12.1875V34.2857Z" fill="#389FA3"/>
<path d="M16.0631 27.9288C15.8425 27.7011 15.5804 27.5204 15.2918 27.397C15.0031 27.2737 14.6936 27.2102 14.381 27.2102C14.0684 27.2102 13.7589 27.2737 13.4703 27.397C13.1816 27.5204 12.9195 27.7011 12.699 27.9288C12.4774 28.1555 12.3016 28.425 12.1817 28.7218C12.0617 29.0185 12 29.3367 12 29.6581C12 29.9794 12.0617 30.2976 12.1817 30.5944C12.3016 30.8911 12.4774 31.1606 12.699 31.3873L21.2513 40.1795L21.3901 40.3222C21.5987 40.5371 21.8465 40.7075 22.1192 40.8238C22.392 40.9401 22.6843 41 22.9796 41C23.2749 41 23.5673 40.9401 23.84 40.8238C24.1128 40.7075 24.3605 40.5371 24.5691 40.3222L39.3407 25.1362C39.5497 24.9218 39.7155 24.6671 39.8286 24.3867C39.9418 24.1063 40 23.8057 40 23.5021C40 23.1986 39.9418 22.898 39.8286 22.6176C39.7155 22.3372 39.5497 22.0825 39.3407 21.868L39.1557 21.6778C38.9471 21.4629 38.6993 21.2925 38.4266 21.1762C38.1538 21.0599 37.8614 21 37.5662 21C37.2709 21 36.9785 21.0599 36.7057 21.1762C36.433 21.2925 36.1852 21.4629 35.9766 21.6778L22.9763 35.036L16.0631 27.9288Z" fill="#389FA3"/>
</svg>
