<svg width="502" height="502" viewBox="0 0 502 502" fill="none" xmlns="http://www.w3.org/2000/svg">
<circle cx="251" cy="251" r="250" stroke="#389FA3" stroke-opacity="0.25"/>
<circle cx="20" cy="156" r="5" fill="#CDE7E8"/>
</svg>
